…
    ## # A tibble: 1 × 4
    ##   avg_num_cell_visted   max   min median
    ##                 <dbl> <int> <int>  <int>
    ## 1                10.0    69     1      7

``` r
h3_nyc_data_slim
```

    ## # A tibble: 368,454 × 3
    ##          u_id home            h3_cell        
    ##         <dbl> <chr>           <chr>          
    ##  1  138559840 8a2a100d22affff 882a107665fffff
    ##  2  314326954 8a2a100f34f7fff 882a100895fffff
    ##  3  443188522 8a2a107292e7fff 882a107665fffff
    ##  4 2595156171 8a2a100db5b7fff 882a107665fffff
    ##  5  167649402 8a2a100aa807fff 882a100895fffff
    ##  6  156426927 8a2a1005a28ffff 882a100895fffff
    ##  7   61429473 8a2a1075422ffff 882a1072c7fffff
    ##  8   34280840 8a2a1072c057fff 882a1072c1fffff
    ##  9    6492922 8a2a103a642ffff 882a100e3bfffff
    ## 10   23729800 8a2a100f374ffff 882a100cd1fffff
    ## # ℹ 368,444 more rows
…
