…
    ## # A tibble: 1 × 4
    ##   avg_num_cell_visted   max   min median
    ##                 <dbl> <int> <int>  <int>
    ## 1                12.0    47     1     11

``` r
h3_nyc_data_slim
```

    ## # A tibble: 35,148 × 3
    ##          u_id home            h3_cell        
    ##       <int64> <chr>           <chr>          
    ##  1  106963663 8a2a100e016ffff 882a1072cdfffff
    ##  2   26435030 8a2a100de32ffff 882a100c6bfffff
    ##  3   61429473 8a2a1075422ffff 882a1072c7fffff
    ##  4   34280840 8a2a1072c057fff 882a1072c1fffff
    ##  5   22320796 8a2a100f0687fff 882a100f07fffff
    ##  6 2893486973 8a2a100dc19ffff 882a107259fffff
    ##  7 3192129959 8a2a1077581ffff 882a1072c3fffff
    ##  8   41022908 8a2a1072c66ffff 882a100a19fffff
    ##  9  249895454 8a2a100d002ffff 882a100d01fffff
    ## 10   30672215 8a2a100d359ffff 882a100d35fffff
    ## # ℹ 35,138 more rows
…
